{
	"ownPlayerLocalId":1,
	"weights":[
		{
			"playerLocalId":1,
			"weight":3
		},
		{
			"playerLocalId":2,
			"weight":2
		},
		{
			"playerLocalId":3,
			"weight":2
		},
		{
			"playerLocalId":0,
			"weight":1
		}
	],
	"calendarAndComIds":[
		{
			"date":"2019-05-05",
			"availabilities":[0,0,0,0,1,2,0,1,1,2,2,2,2,1,1,1,0,2,0,0,0,0,0,0,0,0,0,0,0,0,0,0,0,0,0,0,0,0,0,0,0,0,0,0,0,0,0,0,0,0,0,0,0,0,0,0,0,0,0,0,0,0,0,0,0,0,0,0,0,0,0,0,0,0,0,0,0,0,0,0,0,0,0,0,0,0,0,0,0,0,0,0,0,0,0,0],
			"dummy1":        [0,1,2,3,4,5,6,7,8,9,0,1,2,3,4,5,6,7,8,9,0,1,2,3,4,5,6,7,8,9,0,1,2,3,4,5,6,7,8,9,0,1,2,3,4,5,6,7,8,9,0,1,2,3,4,5,6,7,8,9,0,1,2,3,4,5,6,7,8,9,0,1,2,3,4,5,6,7,8,9,0,1,2,3,4,5,6,7,8,9,0,1,2,3,4,5],
			"dummy2":        [0,0,0,0,0,0,0,0,0,0,1,1,1,1,1,1,1,1,1,1,2,2,2,2,2,2,2,2,2,2,3,3,3,3,3,3,3,3,3,3,4,4,4,4,4,4,4,4,4,4,5,5,5,5,5,5,5,5,5,5,6,6,6,6,6,6,6,6,6,6,7,7,7,7,7,7,7,7,7,7,8,8,8,8,8,8,8,8,8,8,9,9,9,9,9,9],
			"comIds":        [330,331,332,333,334,335,336,337,338,339,3310,311,312,313,314,315,316,317,318,319,320,321,322,323,324,325,326,327,328,329,330,331,332,333,334,335,336,337,338,339,340,341,342,343,344,345,346,347,348,349,350,351,352,353,354,355,356,357,358,359,360,361,362,363,364,365,366,367,368,369,370,371,372,373,374,375,376,377,378,379,380,381,382,383,384,385,386,387,388,389,390,391,392,393,394,395]
		}
	],
	"knownPlayers":[
		{
		"localId":1,
		"icomId":4,
		"pubFingerprint":"00:11:22:33:44:55:66:77:88:99:aa:bb:cc:dd:ee:ff",
		"passNumber":12345678912,
		"nickname":"Dan"
		}
	]
}
